<?xml version="1.0" encoding="UTF-8" standalone="no"?>
<!DOCTYPE svg PUBLIC "-//W3C//DTD SVG 1.1//EN"
 "http://www.w3.org/Graphics/SVG/1.1/DTD/svg11.dtd">
<!-- Generated by graphviz version 2.38.0 (20140413.2041)
 -->
<!-- Title: G Pages: 1 -->
<svg width="314pt" height="960pt"
 viewBox="0.00 0.00 314.00 960.00" xmlns="http://www.w3.org/2000/svg" xmlns:xlink="http://www.w3.org/1999/xlink">
<g id="graph0" class="graph" transform="scale(1 1) rotate(0) translate(4 956)">
<title>G</title>
<polygon fill="white" stroke="none" points="-4,4 -4,-956 310,-956 310,4 -4,4"/>
<g id="clust1" class="cluster"><title>cluster_Global</title>
<path fill="none" stroke="gray" d="M20,-8C20,-8 286,-8 286,-8 292,-8 298,-14 298,-20 298,-20 298,-932 298,-932 298,-938 292,-944 286,-944 286,-944 20,-944 20,-944 14,-944 8,-938 8,-932 8,-932 8,-20 8,-20 8,-14 14,-8 20,-8"/>
<text text-anchor="middle" x="153" y="-931.2" font-family="Times New Roman,serif" font-size="11.00" fill="gray">Global</text>
</g>
<!-- \\Bar -->
<g id="node1" class="node"><title>\\Bar</title>
<polygon fill="none" stroke="black" points="261.5,-916 207.5,-916 207.5,-880 261.5,-880 261.5,-916"/>
<text text-anchor="middle" x="234.5" y="-895.2" font-family="Courier,monospace" font-size="11.00">Bar</text>
</g>
<!-- \\Controller -->
<g id="node14" class="node"><title>\\Controller</title>
<polygon fill="none" stroke="black" points="103.5,-808 19.5,-808 19.5,-772 103.5,-772 103.5,-808"/>
<text text-anchor="start" x="27.5" y="-793.2" font-family="Courier,monospace" font-size="11.00">«abstract»</text>
<text text-anchor="start" x="27.5" y="-781.2" font-family="Courier,monospace" font-size="11.00">Controller</text>
</g>
<!-- \\Bar&#45;&gt;\\Controller -->
<g id="edge1" class="edge"><title>\\Bar&#45;&gt;\\Controller</title>
<path fill="none" stroke="black" d="M207.302,-885.992C198.189,-881.561 188,-876.319 179,-871 149.476,-853.552 117.611,-831.127 94.6814,-814.298"/>
<polygon fill="none" stroke="black" points="96.4769,-811.272 86.3546,-808.144 92.3165,-816.902 96.4769,-811.272"/>
</g>
<!-- \\Foo -->
<g id="node2" class="node"><title>\\Foo</title>
<polygon fill="none" stroke="black" points="261.5,-862 207.5,-862 207.5,-826 261.5,-826 261.5,-862"/>
<text text-anchor="middle" x="234.5" y="-841.2" font-family="Courier,monospace" font-size="11.00">Foo</text>
</g>
<!-- \\Foo&#45;&gt;\\Controller -->
<g id="edge2" class="edge"><title>\\Foo&#45;&gt;\\Controller</title>
<path fill="none" stroke="black" d="M207.156,-835.681C182.218,-827.806 144.11,-815.772 113.267,-806.032"/>
<polygon fill="none" stroke="black" points="114.124,-802.632 103.534,-802.958 112.016,-809.307 114.124,-802.632"/>
</g>
<!-- \\Release -->
<g id="node3" class="node"><title>\\Release</title>
<polygon fill="none" stroke="black" points="266.5,-808 202.5,-808 202.5,-772 266.5,-772 266.5,-808"/>
<text text-anchor="middle" x="234.5" y="-787.2" font-family="Courier,monospace" font-size="11.00">Release</text>
</g>
<!-- \\Release&#45;&gt;\\Controller -->
<g id="edge3" class="edge"><title>\\Release&#45;&gt;\\Controller</title>
<path fill="none" stroke="black" d="M202.136,-790C177.491,-790 142.65,-790 113.937,-790"/>
<polygon fill="none" stroke="black" points="113.666,-786.5 103.666,-790 113.666,-793.5 113.666,-786.5"/>
</g>
<!-- \\Baz -->
<g id="node4" class="node"><title>\\Baz</title>
<polygon fill="none" stroke="black" points="261.5,-754 207.5,-754 207.5,-718 261.5,-718 261.5,-754"/>
<text text-anchor="middle" x="234.5" y="-733.2" font-family="Courier,monospace" font-size="11.00">Baz</text>
</g>
<!-- \\Qux -->
<g id="node5" class="node"><title>\\Qux</title>
<polygon fill="none" stroke="black" points="261.5,-700 207.5,-700 207.5,-664 261.5,-664 261.5,-700"/>
<text text-anchor="middle" x="234.5" y="-679.2" font-family="Courier,monospace" font-size="11.00">Qux</text>
</g>
<!-- \\Qux&#45;&gt;\\Controller -->
<g id="edge4" class="edge"><title>\\Qux&#45;&gt;\\Controller</title>
<path fill="none" stroke="black" d="M207.302,-694.008C198.189,-698.439 188,-703.681 179,-709 149.476,-726.448 117.611,-748.873 94.6814,-765.702"/>
<polygon fill="none" stroke="black" points="92.3165,-763.098 86.3546,-771.856 96.4769,-768.728 92.3165,-763.098"/>
</g>
<!-- \\Quux -->
<g id="node6" class="node"><title>\\Quux</title>
<polygon fill="none" stroke="black" points="261.5,-646 207.5,-646 207.5,-610 261.5,-610 261.5,-646"/>
<text text-anchor="middle" x="234.5" y="-625.2" font-family="Courier,monospace" font-size="11.00">Quux</text>
</g>
<!-- \\Quux&#45;&gt;\\Controller -->
<g id="edge5" class="edge"><title>\\Quux&#45;&gt;\\Controller</title>
<path fill="none" stroke="black" d="M207.303,-638.393C197.894,-642.775 187.513,-648.402 179,-655 138.421,-686.454 101.526,-733.811 80.5715,-763.266"/>
<polygon fill="none" stroke="black" points="77.4671,-761.597 74.5938,-771.795 83.1994,-765.615 77.4671,-761.597"/>
</g>
<!-- \\BaseBuilder -->
<g id="node7" class="node"><title>\\BaseBuilder</title>
<polygon fill="none" stroke="black" points="107,-511 16,-511 16,-475 107,-475 107,-511"/>
<text text-anchor="middle" x="61.5" y="-490.2" font-family="Courier,monospace" font-size="11.00">BaseBuilder</text>
</g>
<!-- \\BuildApp -->
<g id="node8" class="node"><title>\\BuildApp</title>
<polygon fill="none" stroke="black" points="270,-592 199,-592 199,-556 270,-556 270,-592"/>
<text text-anchor="middle" x="234.5" y="-571.2" font-family="Courier,monospace" font-size="11.00">BuildApp</text>
</g>
<!-- \\BuildApp&#45;&gt;\\BaseBuilder -->
<g id="edge6" class="edge"><title>\\BuildApp&#45;&gt;\\BaseBuilder</title>
<path fill="none" stroke="black" d="M198.896,-557.608C173.293,-545.481 138.118,-528.819 109.901,-515.453"/>
<polygon fill="none" stroke="black" points="111.159,-512.176 100.623,-511.058 108.162,-518.502 111.159,-512.176"/>
</g>
<!-- \\BuildDirs -->
<g id="node9" class="node"><title>\\BuildDirs</title>
<polygon fill="none" stroke="black" points="273,-538 196,-538 196,-502 273,-502 273,-538"/>
<text text-anchor="middle" x="234.5" y="-517.2" font-family="Courier,monospace" font-size="11.00">BuildDirs</text>
</g>
<!-- \\BuildDirs&#45;&gt;\\BaseBuilder -->
<g id="edge7" class="edge"><title>\\BuildDirs&#45;&gt;\\BaseBuilder</title>
<path fill="none" stroke="black" d="M195.973,-514.075C172.886,-510.429 142.9,-505.695 117.199,-501.637"/>
<polygon fill="none" stroke="black" points="117.641,-498.163 107.217,-500.061 116.549,-505.077 117.641,-498.163"/>
</g>
<!-- \\BuildProject -->
<g id="node10" class="node"><title>\\BuildProject</title>
<polygon fill="none" stroke="black" points="283.5,-484 185.5,-484 185.5,-448 283.5,-448 283.5,-484"/>
<text text-anchor="middle" x="234.5" y="-463.2" font-family="Courier,monospace" font-size="11.00">BuildProject</text>
</g>
<!-- \\BuildProject&#45;&gt;\\BaseBuilder -->
<g id="edge8" class="edge"><title>\\BuildProject&#45;&gt;\\BaseBuilder</title>
<path fill="none" stroke="black" d="M185.412,-473.593C164.178,-476.946 139.108,-480.904 117.167,-484.368"/>
<polygon fill="none" stroke="black" points="116.337,-480.956 107.005,-485.973 117.429,-487.87 116.337,-480.956"/>
</g>
<!-- \\BuildRelease -->
<g id="node11" class="node"><title>\\BuildRelease</title>
<polygon fill="none" stroke="black" points="283.5,-430 185.5,-430 185.5,-394 283.5,-394 283.5,-430"/>
<text text-anchor="middle" x="234.5" y="-409.2" font-family="Courier,monospace" font-size="11.00">BuildRelease</text>
</g>
<!-- \\BuildRelease&#45;&gt;\\BaseBuilder -->
<g id="edge9" class="edge"><title>\\BuildRelease&#45;&gt;\\BaseBuilder</title>
<path fill="none" stroke="black" d="M195.124,-430.178C169.932,-442.111 136.802,-457.804 109.958,-470.52"/>
<polygon fill="none" stroke="black" points="108.287,-467.439 100.748,-474.883 111.283,-473.765 108.287,-467.439"/>
</g>
<!-- \\Application -->
<g id="node12" class="node"><title>\\Application</title>
<polygon fill="none" stroke="black" points="280,-376 189,-376 189,-340 280,-340 280,-376"/>
<text text-anchor="middle" x="234.5" y="-355.2" font-family="Courier,monospace" font-size="11.00">Application</text>
</g>
<!-- \\Bootstrap -->
<g id="node13" class="node"><title>\\Bootstrap</title>
<polygon fill="none" stroke="black" points="273,-322 196,-322 196,-286 273,-286 273,-322"/>
<text text-anchor="middle" x="234.5" y="-301.2" font-family="Courier,monospace" font-size="11.00">Bootstrap</text>
</g>
<!-- \\Loader -->
<g id="node15" class="node"><title>\\Loader</title>
<polygon fill="none" stroke="black" points="263,-268 206,-268 206,-232 263,-232 263,-268"/>
<text text-anchor="middle" x="234.5" y="-247.2" font-family="Courier,monospace" font-size="11.00">Loader</text>
</g>
<!-- \\Output -->
<g id="node16" class="node"><title>\\Output</title>
<polygon fill="none" stroke="black" points="263,-214 206,-214 206,-178 263,-178 263,-214"/>
<text text-anchor="middle" x="234.5" y="-193.2" font-family="Courier,monospace" font-size="11.00">Output</text>
</g>
<!-- \\Route -->
<g id="node17" class="node"><title>\\Route</title>
<polygon fill="none" stroke="black" points="261.5,-160 207.5,-160 207.5,-124 261.5,-124 261.5,-160"/>
<text text-anchor="middle" x="234.5" y="-139.2" font-family="Courier,monospace" font-size="11.00">Route</text>
</g>
<!-- \\Debug -->
<g id="node18" class="node"><title>\\Debug</title>
<polygon fill="none" stroke="black" points="261.5,-106 207.5,-106 207.5,-70 261.5,-70 261.5,-106"/>
<text text-anchor="middle" x="234.5" y="-85.2" font-family="Courier,monospace" font-size="11.00">Debug</text>
</g>
<!-- \\BootstrapUIKit -->
<g id="node19" class="node"><title>\\BootstrapUIKit</title>
<polygon fill="none" stroke="black" points="290,-52 179,-52 179,-16 290,-16 290,-52"/>
<text text-anchor="middle" x="234.5" y="-31.2" font-family="Courier,monospace" font-size="11.00">BootstrapUIKit</text>
</g>
<!-- \\UIKit -->
<g id="node20" class="node"><title>\\UIKit</title>
<polygon fill="none" stroke="black" points="103.5,-52 19.5,-52 19.5,-16 103.5,-16 103.5,-52"/>
<text text-anchor="start" x="27.5" y="-37.2" font-family="Courier,monospace" font-size="11.00">«abstract»</text>
<text text-anchor="start" x="44.5" y="-25.2" font-family="Courier,monospace" font-size="11.00">UIKit</text>
</g>
<!-- \\BootstrapUIKit&#45;&gt;\\UIKit -->
<g id="edge10" class="edge"><title>\\BootstrapUIKit&#45;&gt;\\UIKit</title>
<path fill="none" stroke="black" d="M178.924,-34C158.02,-34 134.266,-34 113.69,-34"/>
<polygon fill="none" stroke="black" points="113.562,-30.5001 103.562,-34 113.562,-37.5001 113.562,-30.5001"/>
</g>
</g>
</svg>
